{
    "variable": [
        {
            "id": "baseUrl",
            "key": "baseUrl",
            "type": "string",
            "name": "string",
            "value": "https:\/\/bvms.online"
        }
    ],
    "info": {
        "name": "BVMS",
        "_postman_id": "a0e2f819-46ed-4979-93b0-c00e53bb3ef8",
        "description": "",
        "schema": "https:\/\/schema.getpostman.com\/json\/collection\/v2.1.0\/collection.json"
    },
    "item": [
        {
            "name": "Endpoints",
            "description": "",
            "item": [
                {
                    "name": "GET api\/users",
                    "request": {
                        "url": {
                            "host": "{{baseUrl}}",
                            "path": "api\/users",
                            "query": [],
                            "raw": "{{baseUrl}}\/api\/users"
                        },
                        "method": "GET",
                        "header": [
                            {
                                "key": "Content-Type",
                                "value": "application\/json"
                            },
                            {
                                "key": "Accept",
                                "value": "application\/json"
                            }
                        ],
                        "body": null,
                        "description": "",
                        "auth": {
                            "type": "noauth"
                        }
                    },
                    "response": [
                        {
                            "header": [
                                {
                                    "key": "cache-control",
                                    "value": "no-cache, private"
                                },
                                {
                                    "key": "content-type",
                                    "value": "application\/json"
                                },
                                {
                                    "key": "access-control-allow-origin",
                                    "value": "*"
                                }
                            ],
                            "code": 200,
                            "body": "[]",
                            "name": ""
                        }
                    ]
                },
                {
                    "name": "GET api\/barangays",
                    "request": {
                        "url": {
                            "host": "{{baseUrl}}",
                            "path": "api\/barangays",
                            "query": [],
                            "raw": "{{baseUrl}}\/api\/barangays"
                        },
                        "method": "GET",
                        "header": [
                            {
                                "key": "Content-Type",
                                "value": "application\/json"
                            },
                            {
                                "key": "Accept",
                                "value": "application\/json"
                            }
                        ],
                        "body": null,
                        "description": "",
                        "auth": {
                            "type": "noauth"
                        }
                    },
                    "response": [
                        {
                            "header": [
                                {
                                    "key": "cache-control",
                                    "value": "no-cache, private"
                                },
                                {
                                    "key": "content-type",
                                    "value": "application\/json"
                                },
                                {
                                    "key": "access-control-allow-origin",
                                    "value": "*"
                                }
                            ],
                            "code": 200,
                            "body": "[]",
                            "name": ""
                        }
                    ]
                },
                {
                    "name": "Log in a user and get an authentication token.",
                    "request": {
                        "url": {
                            "host": "{{baseUrl}}",
                            "path": "api\/login",
                            "query": [],
                            "raw": "{{baseUrl}}\/api\/login"
                        },
                        "method": "POST",
                        "header": [
                            {
                                "key": "Content-Type",
                                "value": "application\/json"
                            },
                            {
                                "key": "Accept",
                                "value": "application\/json"
                            }
                        ],
                        "body": {
                            "mode": "raw",
                            "raw": "{\"email\":\"user@example.com\",\"password\":\"password123\"}"
                        },
                        "description": "",
                        "auth": {
                            "type": "noauth"
                        }
                    },
                    "response": [
                        {
                            "header": [],
                            "code": 200,
                            "body": "{\n  \"token\": \"1|abcd1234\",\n  \"user_type\": \"admin\"\n}",
                            "name": ""
                        },
                        {
                            "header": [],
                            "code": 401,
                            "body": "{\n  \"error\": \"Invalid credentials\"\n}",
                            "name": ""
                        }
                    ]
                },
                {
                    "name": "Send a reset password link to the user's email.",
                    "request": {
                        "url": {
                            "host": "{{baseUrl}}",
                            "path": "api\/forgot-password",
                            "query": [],
                            "raw": "{{baseUrl}}\/api\/forgot-password"
                        },
                        "method": "POST",
                        "header": [
                            {
                                "key": "Content-Type",
                                "value": "application\/json"
                            },
                            {
                                "key": "Accept",
                                "value": "application\/json"
                            }
                        ],
                        "body": {
                            "mode": "raw",
                            "raw": "{\"email\":\"user@example.com\"}"
                        },
                        "description": "",
                        "auth": {
                            "type": "noauth"
                        }
                    },
                    "response": [
                        {
                            "header": [],
                            "code": 200,
                            "body": "{\n  \"message\": \"Reset password link sent to your email\"\n}",
                            "name": ""
                        },
                        {
                            "header": [],
                            "code": 404,
                            "body": "{\n  \"error\": \"User not found\"\n}",
                            "name": ""
                        }
                    ]
                },
                {
                    "name": "Log out the authenticated user.",
                    "request": {
                        "url": {
                            "host": "{{baseUrl}}",
                            "path": "api\/logout",
                            "query": [],
                            "raw": "{{baseUrl}}\/api\/logout"
                        },
                        "method": "POST",
                        "header": [
                            {
                                "key": "Content-Type",
                                "value": "application\/json"
                            },
                            {
                                "key": "Accept",
                                "value": "application\/json"
                            }
                        ],
                        "body": null,
                        "description": ""
                    },
                    "response": [
                        {
                            "header": [],
                            "code": 200,
                            "body": "{\n  \"message\": \"Logged out\"\n}",
                            "name": ""
                        }
                    ]
                },
                {
                    "name": "GET api\/profile",
                    "request": {
                        "url": {
                            "host": "{{baseUrl}}",
                            "path": "api\/profile",
                            "query": [],
                            "raw": "{{baseUrl}}\/api\/profile"
                        },
                        "method": "GET",
                        "header": [
                            {
                                "key": "Content-Type",
                                "value": "application\/json"
                            },
                            {
                                "key": "Accept",
                                "value": "application\/json"
                            }
                        ],
                        "body": null,
                        "description": "",
                        "auth": {
                            "type": "noauth"
                        }
                    },
                    "response": [
                        {
                            "header": [
                                {
                                    "key": "cache-control",
                                    "value": "no-cache, private"
                                },
                                {
                                    "key": "content-type",
                                    "value": "application\/json"
                                },
                                {
                                    "key": "access-control-allow-origin",
                                    "value": "*"
                                }
                            ],
                            "code": 401,
                            "body": "{\"message\":\"Unauthenticated.\"}",
                            "name": ""
                        }
                    ]
                },
                {
                    "name": "PUT api\/profile",
                    "request": {
                        "url": {
                            "host": "{{baseUrl}}",
                            "path": "api\/profile",
                            "query": [],
                            "raw": "{{baseUrl}}\/api\/profile"
                        },
                        "method": "PUT",
                        "header": [
                            {
                                "key": "Content-Type",
                                "value": "application\/json"
                            },
                            {
                                "key": "Accept",
                                "value": "application\/json"
                            }
                        ],
                        "body": null,
                        "description": "",
                        "auth": {
                            "type": "noauth"
                        }
                    },
                    "response": []
                },
                {
                    "name": "Get a list of all incidents.",
                    "request": {
                        "url": {
                            "host": "{{baseUrl}}",
                            "path": "api\/incidents",
                            "query": [
                                {
                                    "key": "page",
                                    "value": "1",
                                    "description": "The page number for pagination.",
                                    "disabled": false
                                },
                                {
                                    "key": "per_page",
                                    "value": "10",
                                    "description": "The number of items per page.",
                                    "disabled": false
                                }
                            ],
                            "raw": "{{baseUrl}}\/api\/incidents?page=1&per_page=10"
                        },
                        "method": "GET",
                        "header": [
                            {
                                "key": "Content-Type",
                                "value": "application\/json"
                            },
                            {
                                "key": "Accept",
                                "value": "application\/json"
                            }
                        ],
                        "body": null,
                        "description": "",
                        "auth": {
                            "type": "noauth"
                        }
                    },
                    "response": [
                        {
                            "header": [],
                            "code": 200,
                            "body": "{\n  \"data\": [\n    {\n      \"id\": 1,\n      \"title\": \"Server Down\",\n      \"description\": \"The main server is not responding.\",\n      \"location\": \"Server Room\",\n      \"priority\": \"high\",\n      \"type\": \"incident\",\n      \"status\": \"pending\",\n      \"user_id\": 5,\n      \"incident_category_id\": 2,\n      \"created_at\": \"2024-11-18T12:00:00.000000Z\",\n      \"updated_at\": \"2024-11-18T12:00:00.000000Z\"\n    }\n  ],\n  \"links\": {\n    \"first\": \"http:\/\/example.com\/api\/incidents?page=1\",\n    \"last\": \"http:\/\/example.com\/api\/incidents?page=10\",\n    \"prev\": null,\n    \"next\": \"http:\/\/example.com\/api\/incidents?page=2\"\n  },\n  \"meta\": {\n    \"current_page\": 1,\n    \"from\": 1,\n    \"last_page\": 10,\n    \"path\": \"http:\/\/example.com\/api\/incidents\",\n    \"per_page\": 10,\n    \"to\": 10,\n    \"total\": 100\n  }\n}",
                            "name": ""
                        }
                    ]
                },
                {
                    "name": "Store a newly created incident in the database.",
                    "request": {
                        "url": {
                            "host": "{{baseUrl}}",
                            "path": "api\/incidents",
                            "query": [],
                            "raw": "{{baseUrl}}\/api\/incidents"
                        },
                        "method": "POST",
                        "header": [
                            {
                                "key": "Content-Type",
                                "value": "application\/json"
                            },
                            {
                                "key": "Accept",
                                "value": "application\/json"
                            }
                        ],
                        "body": {
                            "mode": "raw",
                            "raw": "{\"title\":\"\\\"Power Outage\\\"\",\"description\":\"\\\"There is a power outage in the building.\\\"\",\"location\":\"\\\"Building A, Floor 3\\\"\",\"priority\":\"\\\"high\\\" Allowed values: low, medium, high. Default: low.\",\"type\":\"\\\"request\\\" Allowed values: incident, request. Default: incident.\",\"status\":\"\\\"pending\\\"\",\"user_id\":5,\"incident_category_id\":2}"
                        },
                        "description": "",
                        "auth": {
                            "type": "noauth"
                        }
                    },
                    "response": [
                        {
                            "header": [],
                            "code": 201,
                            "body": "{\n  \"id\": 1,\n  \"title\": \"Power Outage\",\n  \"description\": \"There is a power outage in the building.\",\n  \"location\": \"Building A, Floor 3\",\n  \"priority\": \"high\",\n  \"type\": \"request\",\n  \"status\": \"pending\",\n  \"user_id\": 5,\n  \"incident_category_id\": 2,\n  \"created_at\": \"2024-11-18T12:00:00.000000Z\",\n  \"updated_at\": \"2024-11-18T12:00:00.000000Z\"\n}",
                            "name": ""
                        }
                    ]
                },
                {
                    "name": "Get details of a specific incident.",
                    "request": {
                        "url": {
                            "host": "{{baseUrl}}",
                            "path": "api\/incidents\/:id",
                            "query": [],
                            "raw": "{{baseUrl}}\/api\/incidents\/:id",
                            "variable": [
                                {
                                    "id": "id",
                                    "key": "id",
                                    "value": "1",
                                    "description": "The ID of the incident."
                                }
                            ]
                        },
                        "method": "GET",
                        "header": [
                            {
                                "key": "Content-Type",
                                "value": "application\/json"
                            },
                            {
                                "key": "Accept",
                                "value": "application\/json"
                            }
                        ],
                        "body": null,
                        "description": "",
                        "auth": {
                            "type": "noauth"
                        }
                    },
                    "response": [
                        {
                            "header": [],
                            "code": 200,
                            "body": "{\n  \"id\": 1,\n  \"title\": \"Server Down\",\n  \"description\": \"The main server is not responding.\",\n  \"location\": \"Server Room\",\n  \"priority\": \"high\",\n  \"type\": \"incident\",\n  \"status\": \"resolved\",\n  \"user_id\": 5,\n  \"incident_category_id\": 2,\n  \"created_at\": \"2024-11-18T12:00:00.000000Z\",\n  \"updated_at\": \"2024-11-18T12:00:00.000000Z\"\n}",
                            "name": ""
                        }
                    ]
                },
                {
                    "name": "Update an existing incident.",
                    "request": {
                        "url": {
                            "host": "{{baseUrl}}",
                            "path": "api\/incidents\/:id",
                            "query": [],
                            "raw": "{{baseUrl}}\/api\/incidents\/:id",
                            "variable": [
                                {
                                    "id": "id",
                                    "key": "id",
                                    "value": "1",
                                    "description": "The ID of the incident to update."
                                }
                            ]
                        },
                        "method": "PUT",
                        "header": [
                            {
                                "key": "Content-Type",
                                "value": "application\/json"
                            },
                            {
                                "key": "Accept",
                                "value": "application\/json"
                            }
                        ],
                        "body": {
                            "mode": "raw",
                            "raw": "{\"title\":\"\\\"Network Failure\\\"\",\"description\":\"\\\"The network connection is down in the west wing.\\\"\",\"location\":\"\\\"West Wing, Room 12\\\"\",\"priority\":\"\\\"medium\\\" Allowed values: low, medium, high.\",\"type\":\"\\\"incident\\\" Allowed values: incident, request.\",\"status\":\"\\\"resolved\\\"\",\"user_id\":5,\"incident_category_id\":3}"
                        },
                        "description": "",
                        "auth": {
                            "type": "noauth"
                        }
                    },
                    "response": [
                        {
                            "header": [],
                            "code": 200,
                            "body": "{\n  \"message\": \"Incident updated successfully\"\n}",
                            "name": ""
                        }
                    ]
                },
                {
                    "name": "Delete a specific incident.",
                    "request": {
                        "url": {
                            "host": "{{baseUrl}}",
                            "path": "api\/incidents\/:id",
                            "query": [],
                            "raw": "{{baseUrl}}\/api\/incidents\/:id",
                            "variable": [
                                {
                                    "id": "id",
                                    "key": "id",
                                    "value": "1",
                                    "description": "The ID of the incident to delete."
                                }
                            ]
                        },
                        "method": "DELETE",
                        "header": [
                            {
                                "key": "Content-Type",
                                "value": "application\/json"
                            },
                            {
                                "key": "Accept",
                                "value": "application\/json"
                            }
                        ],
                        "body": null,
                        "description": "",
                        "auth": {
                            "type": "noauth"
                        }
                    },
                    "response": [
                        {
                            "header": [],
                            "code": 200,
                            "body": "{\n  \"message\": \"Incident deleted successfully\"\n}",
                            "name": ""
                        }
                    ]
                }
            ]
        }
    ],
    "auth": {
        "type": "noauth"
    }
}